…
Alternatively, we could determine the price of these coins in other currencies. A list of such currencies is available as fiat_list()

fiats <- fiat_list()
fiats

## # A tibble: 93 × 4
##       id name                 sign  symbol
##    <int> <chr>                <chr> <chr> 
##  1  2781 United States Dollar $     USD   
##  2  2782 Australian Dollar    $     AUD   
##  3  2783 Brazilian Real       R$    BRL   
##  4  2784 Canadian Dollar      $     CAD   
##  5  2785 Swiss Franc          Fr    CHF   
##  6  2786 Chilean Peso         $     CLP   
##  7  2787 Chinese Yuan         ¥     CNY   
##  8  2788 Czech Koruna         Kč    CZK   
##  9  2789 Danish Krone         kr    DKK   
## 10  2790 Euro                 €     EUR   
## # … with 83 more rows
…
Last and least, one can get information on exchanges. For this download a list of active/inactive/untracked exchanges using exchange_list():

exchanges <- exchange_list(only_active=TRUE)
exchanges

## # A tibble: 438 × 6
##       id name         slug         is_active first_historical_… last_historical…
##    <int> <chr>        <chr>            <int> <date>             <date>          
##  1    16 Poloniex     poloniex             1 2018-04-26         2021-12-05      
##  2    22 Bittrex      bittrex              1 2018-04-26         2021-12-05      
##  3    24 Kraken       kraken               1 2018-04-26         2021-12-05      
##  4    32 Bleutrade    bleutrade            1 2018-04-26         2021-10-04      
##  5    34 Bittylicious bittylicious         1 2018-04-26         2021-12-05      
##  6    36 CEX.IO       cex-io               1 2018-04-26         2021-12-05      
##  7    37 Bitfinex     bitfinex             1 2018-04-26         2021-12-05      
##  8    42 HitBTC       hitbtc               1 2018-04-26         2021-12-05      
##  9    50 EXMO         exmo                 1 2018-04-26         2021-12-05      
## 10    61 Okcoin       okcoin               1 2018-04-26         2021-12-05      
## # … with 428 more rows
…
